…
## Read and clean the Professor Trash Wheel sheet:

``` r
combination = bind_rows(mr_trash_wheel, professor_df, gwynnda_df) |> 
  relocate(type)

combination
```

    ## # A tibble: 747 × 16
    ##    type  dumpster month  year date                weight_tons volume_cubic_yards
    ##    <chr>    <dbl> <chr> <int> <dttm>                    <dbl>              <dbl>
    ##  1 Mr.          1 May    2014 2014-05-16 00:00:00        4.31                 18
    ##  2 Mr.          2 May    2014 2014-05-16 00:00:00        2.74                 13
    ##  3 Mr.          3 May    2014 2014-05-16 00:00:00        3.45                 15
    ##  4 Mr.          4 May    2014 2014-05-17 00:00:00        3.1                  15
    ##  5 Mr.          5 May    2014 2014-05-17 00:00:00        4.06                 18
    ##  6 Mr.          6 May    2014 2014-05-20 00:00:00        2.71                 13
    ##  7 Mr.          7 May    2014 2014-05-21 00:00:00        1.91                  8
    ##  8 Mr.          8 May    2014 2014-05-28 00:00:00        3.7                  16
    ##  9 Mr.          9 June   2014 2014-06-05 00:00:00        2.52                 14
    ## 10 Mr.         10 June   2014 2014-06-11 00:00:00        3.76                 18
    ## # ℹ 737 more rows
    ## # ℹ 9 more variables: plastic_bottles <dbl>, polystyrene <dbl>,
    ## #   cigarette_butts <dbl>, glass_bottles <dbl>, grocery_bags <dbl>,
    ## #   chip_bags <dbl>, sports_balls <dbl>, homes_powered <dbl>,
    ## #   plastic_bags <dbl>
…
